83 83
83 I 
81 I 
77 I 
70 I 
66 I 
59 I 
23 L "p"
52 I 
28 L "W"
29 L "D"
58 I 
48 I 
39 L ")"
11 L ":"
8 L "é"
64 I 
54 I 
46 I 
34 L "9"
35 L "3"
44 I 
41 L "m"
16 L "U"
57 I 
47 I 
19 L "v"
37 L "-"
45 I 
32 L "("
33 L "1"
72 I 
2 L "r"
67 I 
55 I 
21 L "q"
51 I 
24 L ","
26 L "E"
62 I 
36 L "0"
22 L "u"
78 I 
73 I 
13 L "o"
15 L "d"
5 L "e"
82 I 
79 I 
74 I 
18 L "i"
68 I 
17 L "n"
14 L "t"
75 I 
3 L "a"
4 L "s"
80 I 
76 I 
69 I 
7 L "c"
63 I 
25 L "."
61 I 
50 I 
42 L "h"
12 L "N"
53 I 
30 L "j"
31 L "k"
71 I 
9 L "l"
65 I 
56 I 
43 I 
1 L "F"
10 L "b"
38 L "2"
60 I 
49 I 
20 L "f"
40 L "C"
27 L "g"
6 L " "
83 81 Left
83 82 Right
81 77 Left
81 78 Right
77 70 Left
77 72 Right
70 66 Left
70 64 Right
66 59 Left
66 58 Right
59 23 Left
59 52 Right
52 28 Left
52 29 Right
58 48 Left
58 8 Right
48 39 Left
48 11 Right
64 54 Left
64 57 Right
54 46 Left
54 44 Right
46 34 Left
46 35 Right
44 41 Left
44 16 Right
57 47 Left
57 45 Right
47 19 Left
47 37 Right
45 32 Left
45 33 Right
72 2 Left
72 67 Right
67 55 Left
67 62 Right
55 21 Left
55 51 Right
51 24 Left
51 26 Right
62 36 Left
62 22 Right
78 73 Left
78 5 Right
73 13 Left
73 15 Right
82 79 Left
82 80 Right
79 74 Left
79 75 Right
74 18 Left
74 68 Right
68 17 Left
68 14 Right
75 3 Left
75 4 Right
80 76 Left
80 6 Right
76 69 Left
76 71 Right
69 7 Left
69 63 Right
63 25 Left
63 61 Right
61 50 Left
61 53 Right
50 42 Left
50 12 Right
53 30 Left
53 31 Right
71 9 Left
71 65 Right
65 56 Left
65 60 Right
56 43 Left
56 38 Right
43 1 Left
43 10 Right
60 49 Left
60 27 Right
49 20 Left
49 40 Right

